Q100,Q710,record_length,HYDRO_DISTURB_INDX,BAS_COMPACTNESS,LAT_CENT,DRAIN_SQKM,LAT_GAGE,PPTAVG_BASIN,PPTAVG_SITE,T_AVG_BASIN,T_AVG_SITE,T_MAX_BASIN,T_MAX_SITE,RH_BASIN,RH_SITE,FST32F_BASIN,LST32F_BASIN,FST32SITE,LST32SITE,WD_BASIN,WD_SITE,WDMAX_BASIN,WDMIN_BASIN,WDMAX_SITE,WDMIN_SITE,PET,SNOW_PCT_PRECIP,PRECIP_SEAS_IND,JAN_PPT7100_CM,FEB_PPT7100_CM,MAR_PPT7100_CM,APR_PPT7100_CM,MAY_PPT7100_CM,JUN_PPT7100_CM,JUL_PPT7100_CM,AUG_PPT7100_CM,SEP_PPT7100_CM,OCT_PPT7100_CM,NOV_PPT7100_CM,DEC_PPT7100_CM,APR_TMP7100_DEGC,MAY_TMP7100_DEGC,JUN_TMP7100_DEGC,JUL_TMP7100_DEGC,AUG_TMP7100_DEGC,SEP_TMP7100_DEGC,OCT_TMP7100_DEGC,FLOWYRS_1900_2009,FLOWYRS_1950_2009,STREAMS_KM_SQ_KM,MAINSTEM_SINUOUSITY,BFI_AVE,PERDUN,TOPWET,CONTACT,RUNAVE7100,WB5100_JAN_MM,WB5100_FEB_MM,WB5100_MAR_MM,WB5100_APR_MM,WB5100_MAY_MM,WB5100_JUN_MM,WB5100_JUL_MM,WB5100_AUG_MM,WB5100_SEP_MM,WB5100_OCT_MM,WB5100_NOV_MM,WB5100_DEC_MM,WB5100_ANN_MM,FRESHW_WITHDRAWAL,FRAGUN_BASIN,FORESTNLCD06,DECIDNLCD06,PDEN_2000_BLOCK,NUTR_ECO_SITE,ECO2_BAS_DOM,ECO3_BAS_DOM,ECO3_BAS_PCT,HLR_BAS_PCT_100M,PNV_BAS_DOM,PNV_BAS_PCT,AWCAVE,PERMAVE,BDAVE,OMAVE,WTDEPAVE,ROCKDEPAVE,NO4AVE,NO200AVE,NO10AVE,CLAYAVE,SILTAVE,SANDAVE,KFACT_UP,RFACT,ELEV_MEAN_M_BASIN,ELEV_MAX_M_BASIN,ELEV_MEDIAN_M_BASIN,RRMEAN,RRMEDIAN,SLOPE_PCT,ASPECT_DEGREES
19614,2.58,44,9,1.68,42.919003,157.7,42.929517,108.04,97.94,7.99,8.3,13.25,14.3,66.6,67,274,131.1,275,129,140.1,137,13.7,10,13,10,620.6,28.6,0.086,7.3,6.23,8.26,8.95,9.72,10.73,10.53,9.73,10.3,8.49,9.47,8.04,6.82,13.29,18.3,20.79,19.8,15.65,9.5,40,40,0.96,1.27,40.3,2.7,11.31,274.6,778.3,15.7,10.1,30.1,99.7,89.3,52.6,30.5,19.8,18.8,24.5,40.2,28.2,459.4,9.8,77.5,23.75,17.59,17.04,7,8.1,83,100,92.6,50,99.4,0.14,0.99,1.47,1.94,2.32,52.33,75.06,55.08,70.48,22.64,55.07,22.29,0.33,93.02,277,538,246,0.415,0.345,5.8,35
5791,0.95,25,11,2.03,42.835947,154.8,42.876184,106.23,102,7.61,8.4,13.04,13.8,67.6,67,272.1,132.8,276,128,138.8,137,13,10,13,10,604,28.7,0.086,7.15,6.17,8.33,8.9,9.72,10.54,10.33,9.56,9.88,8.24,9.05,7.79,6.64,13.08,18.09,20.54,19.53,15.37,9.3,16,16,0.78,1.91,37.2,2.5,11.46,387.8,776.7,16.7,10.5,30,101.6,97.6,58,33.6,21.6,21.3,27.7,44.2,30.5,493.5,31,80.7,27.38,21.57,14.24,7,8.1,83,100,73.3,50,94.5,0.15,0.73,1.42,2.42,1.79,52.34,81.01,63.27,77.32,28.37,53.18,18.45,0.38,95.02,313,641,290,0.274,0.223,6.5,3.1
29138,1.32,33,8,1.96,42.254245,92.7,42.249253,124.72,110.41,5.65,5.9,11.95,12.9,67.7,67,266.2,142.8,267,140,122.8,118,11.8,8.8,11,8,523,34.6,0.032,9.71,7.05,10.63,11.21,11.79,10.91,10.22,9.76,11.22,11.03,11.61,9.36,4.7,10.94,15.52,18.14,17.03,13.14,7.51,12,12,0.25,1.26,40.3,3,10.69,60.4,473.3,19.7,10.7,18.3,91.3,143.9,108.9,63,40.4,42.9,54,67.3,37.6,698,4.3,15.9,88.8,66.39,7.53,8,5.3,58,100,100,50,67.1,0.11,1.24,1.35,1.34,4,44.06,58.01,36.97,51.59,12.81,59.17,28.02,0.23,104.92,671.9,1209,632,0.301,0.249,15,193
6272,0.56,20,2,3.47,42.180675,12.7,42.185088,147.1,132.11,4.84,4.9,10.26,10.9,69.4,69,264.6,145.3,265,145,127.2,127,12,9,12,9,492.6,35.8,0.036,12.14,9.6,12.26,11.98,13.63,12.71,13.2,12.71,12.61,12.31,13.45,10.56,3.54,9.94,14.26,16.83,16.01,12.06,6.42,12,12,0.31,1.06,43,2,8.72,21.1,466.5,23,12,16.4,90.2,166.9,153,95.1,62.4,64.3,75,83.6,44.9,886.7,4.3,5.3,99.72,69.25,1.7,8,5.3,58,100,99.5,50,86.7,0.1,1.28,1.38,0.69,5.41,30.04,54.43,34.82,46.95,14.69,59.75,25.56,0.22,130.9,898.5,1229,892,0.453,0.442,32.5,257.8
19573,1.88,21,10,2.36,42.196916,73.7,42.230365,127.31,109.35,5.25,5.8,11.18,12.9,68.6,68,265.5,142.7,266,140,123.2,118,11.6,8.9,11,8,508.2,33.9,0.048,9.9,8.01,10.51,10.78,12.18,11.51,11.17,11,11.5,10.56,11.23,9.27,4.37,10.72,15.22,17.79,16.87,12.92,7.26,12,12,0.29,1.17,43.2,2.1,10.02,24.9,471.8,20.6,10.9,17.4,88.7,150.1,119.7,72.9,47.8,50.8,61.6,71.8,39.8,752.3,4.3,9.6,95.64,75.76,2.97,8,5.3,58,100,99.7,50,61.9,0.11,1.41,1.36,0.86,4.86,38.02,57.84,36.31,50.7,13.67,58.52,27.81,0.22,119.94,741.2,1229,723,0.397,0.375,26.7,331.1
76965,2.44,21,16,2.5,42.31569,177.9,42.308418,112.39,102.45,5.88,6.2,12.15,13.3,67.8,68,266.8,141.8,268,139,125,119,12,9,12,9,531.6,32.8,0.057,8.3,6.57,9.11,9.92,10.58,10.51,9.58,9.71,10.36,9.71,9.82,8.23,4.84,11.07,15.73,18.31,17.22,13.32,7.65,12,12,0.34,1.38,38.1,2.2,10.71,77.5,473,17.1,9.4,17.7,87.9,126.8,86.2,49.2,31.8,34.7,43.9,55.9,32.2,592.8,5.2,21.6,83.69,60.62,12.77,8,5.3,58,100,100,50,67.8,0.1,1.56,1.36,1.19,4.25,43.29,57.96,36.28,51.22,13.26,57.98,28.76,0.23,97.32,630,1209,602,0.296,0.262,15.8,189.7
77537,8.85,109,17,2.8,42.256596,612.5,42.319528,119.04,101.06,5.66,6,11.95,13.5,68,67,266.4,142.1,268,138,122.5,120,11.7,8.8,11,8,523.1,33.4,0.049,8.93,7.05,9.82,10.4,11.29,10.79,10.24,9.98,10.83,10.24,10.67,8.74,4.78,11.04,15.68,18.26,17.2,13.3,7.63,102,60,0.31,1.33,40.2,2.4,10.56,51.9,472.7,19,10.4,18.6,90.2,137.8,102.4,60.3,39.1,41.8,52.1,63.9,36.3,671.9,5.3,17.6,86.88,61.24,9.96,8,5.3,58,100,99.9,50,71.7,0.1,1.59,1.37,1.09,4.4,42.72,58.3,36.33,51.41,13.36,57.77,28.87,0.23,105.84,652,1229,616,0.348,0.307,18.4,190.2
7839,1.46,31,12,2.98,42.397341,83.8,42.377026,101.86,100.63,6.03,6.3,12.25,13.1,67.7,68,267.3,140.4,269,137,125,120,12,9,11,8,539.8,30.8,0.085,6.66,5.93,7.98,8.72,9.79,9.83,9.38,9.36,9.38,8.65,9.09,7.04,4.99,11.24,16.07,18.59,17.54,13.62,7.91,23,23,0.26,1.21,35.8,2.3,10.52,79.4,473,15.3,8.6,18.1,85.4,110.9,68.4,39.7,26.1,29.1,37.2,48.1,28.4,515.2,98.3,25.5,81.05,44.37,7.09,8,5.3,58,100,99.5,50,74.1,0.11,1.54,1.39,1.16,3.97,46.36,61.73,37.98,54.61,14.14,55.67,30.19,0.24,88.9,591.7,1044,581,0.307,0.291,12.1,241.3
36240,4.06,45,19,2.11,42.287532,817.1,42.397303,114.84,95.16,5.77,6.8,12.04,13.9,67.9,67,266.5,141.7,269,137,123.1,119,11.7,8.9,11,9,527.9,32.5,0.058,8.39,6.75,9.35,10.01,10.99,10.5,10.07,9.8,10.54,9.86,10.22,8.33,4.9,11.16,15.87,18.42,17.38,13.47,7.78,9,9,0.31,1.37,39.3,2.5,10.57,57.6,473.1,18.2,10,19,89.7,129.9,93.1,54.9,35.7,38.3,48.1,59.6,34.5,630.8,33.3,21.3,83.65,56.38,9.93,8,5.3,58,100,99.1,50,73.3,0.11,1.51,1.37,1.13,4.28,43.9,59.47,37.39,52.64,13.78,57.52,28.7,0.24,101.97,630.4,1229,598,0.363,0.328,17.3,186.1
2204,1.07,42,12,2.54,42.435852,29.5,42.406191,103.28,95.56,6.4,6.7,12.31,13.6,68,67,268.3,138.8,269,137,122.7,120,11.9,8.9,11,9,556.3,29.5,0.09,6.85,5.82,7.96,9.16,10.08,9.98,9.91,9.24,9.65,8.75,8.96,7.18,5.21,11.47,16.31,18.81,17.83,13.88,8.16,34,34,0.51,1.2,35.5,2.6,10.83,134.7,474,14,8.1,19.3,85.5,97.9,58.1,33.8,22.2,24.6,31.8,42.4,25.8,463.5,99.9,37.4,70.37,33.04,5.94,8,5.3,58,100,99.7,50,59,0.11,1.21,1.32,1.74,3.19,52.41,62.61,40.29,56.75,12.25,58.52,29.23,0.25,87.35,563.8,795,577,0.512,0.54,9.2,204.5
3264,0.19,43,15,2.08,42.446563,43.8,42.428968,105.25,96.2,6.12,6.8,12.18,13.7,67.9,67,265.6,141.1,269,137,130.7,120,12.4,9.7,12,9,546.3,27.5,0.093,7.1,5.77,8.03,9.17,10.48,10.22,10.18,9.29,10.05,8.87,9.05,7.39,5.47,11.68,16.62,19.08,18.15,14.26,8.55,34,34,0.26,1.14,36.2,3,10.56,80.1,476.2,16.8,9.7,25.2,95,96,57,35.2,23,25.8,35.2,46.2,31,496.1,99.9,30.1,79.26,45.39,8.58,8,5.3,58,100,100,50,77.6,0.12,1.25,1.33,1.64,4.44,39.65,66.17,42.68,57.65,13.89,60.02,26.09,0.25,92.68,572.4,850,583,0.474,0.494,11.8,104.2
81382,0.96,47,20,2.29,42.305369,928.5,42.465911,113.32,93.47,5.84,6.8,12.1,14.1,67.9,68,266.5,141.4,269,137,123.4,122,11.8,8.9,12,9,531.1,31.9,0.062,8.19,6.62,9.16,9.89,10.9,10.43,10.05,9.72,10.43,9.72,10.04,8.17,4.98,11.24,15.98,18.52,17.49,13.58,7.88,38,38,0.31,1.38,38.9,2.5,10.54,64.8,473.3,17.8,9.9,19.5,89.8,125.4,88.5,52.2,33.9,36.5,46.1,57.5,33.7,610.9,41.3,22.6,82.51,53.79,9.6,8,5.3,58,100,98.8,50,72.3,0.11,1.48,1.37,1.2,4.19,44.38,60.67,38.59,53.9,14.08,57.56,28.37,0.24,100.43,617.2,1229,592,0.38,0.354,16.7,176.7
128744,7.33,42,20,1.88,42.345088,1153.1,42.537021,111.38,93.75,5.97,7.2,12.19,13.9,67.8,67,266.8,141,272,134,124.2,119,11.8,9,12,9,536.3,31.3,0.068,7.93,6.44,8.93,9.71,10.75,10.41,10.04,9.63,10.27,9.55,9.79,7.97,5.08,11.34,16.12,18.65,17.62,13.71,7.99,34,34,0.38,1.48,38.3,2.6,10.48,65.8,473.6,17.5,9.8,20.4,90.4,120.4,83,49.1,31.9,34.5,44,55.5,33,589.6,52.6,22.9,81.61,51.59,9.19,8,5.3,58,100,99,50,74.2,0.11,1.49,1.36,1.32,4.16,43.83,62.06,39.75,55.06,14.31,57.77,27.91,0.25,98.57,600.2,1229,587,0.383,0.37,15.9,170.8
17455,0.17,99,10,2.48,42.468099,252.7,42.404526,103.83,101.08,6.55,7.5,12.85,13.9,67.4,66,268.8,138.7,272,136,122.4,118,12,8.8,11,8,559.3,29.8,0.076,7.15,6.18,8.23,8.99,10.11,10.35,9.31,9.12,9.38,8.62,9.27,7.29,5.57,11.82,16.68,19.24,18.08,14.09,8.32,48,28,0.46,1.21,34.8,1.7,10.35,102.9,394.2,14.3,9.1,24.1,89.7,97,58.4,33.1,20.6,22,30.3,40.8,26.4,465.9,89,28.8,78.55,48.71,8.59,8,5.3,58,100,95.2,50,77.4,0.11,1.05,1.41,1.27,3.77,47.18,63.01,41.23,56.23,15.95,57.21,26.84,0.26,90.26,483.3,876,502,0.43,0.457,13.1,102.9
29096,4.34,26,14,2.43,42.102066,154.1,42.116479,130.02,121.38,5.51,6,11.33,13.7,68.4,68,267.3,137.8,269,135,114.9,105,10.9,8,10,7,514.6,34.3,0.032,10.19,7.94,11.29,10.63,12.35,11.64,11.39,10.11,11.64,10.92,11.74,10.21,4.76,11.03,15.57,18.05,17.24,13.3,7.62,25,25,0.29,1.7,46.8,2.1,10.03,26.1,393.5,22.3,11.9,20.4,94.1,155.4,127.6,81.2,53.5,53.5,64.5,75.5,42.6,802.5,178.4,7.9,96.48,89.04,5.7,8,5.3,58,100,34.6,50,83.1,0.1,1.42,1.4,0.72,5.32,34.44,55.42,35.25,47.73,15.02,59.07,25.91,0.23,126.7,674.8,1128,669,0.445,0.438,27.8,119.8
32359,4.89,55,15,2.07,42.10102,169.2,42.117034,130.61,122.98,5.53,6,11.32,13.7,68.3,68,267.4,137.6,269,135,114.6,105,10.8,8,10,7,515.3,34.2,0.032,10.24,7.99,11.32,10.69,12.39,11.68,11.39,10.15,11.67,10.95,11.78,10.22,4.78,11.05,15.59,18.07,17.26,13.31,7.64,46,46,0.28,1.75,46.8,2.1,9.97,27.3,395.3,22.5,12,20.9,95.2,155.7,127.3,80.7,53.2,53.3,64.5,75.8,43,804.2,179.8,7.7,96.69,88.34,5.77,8,5.3,58,100,37.4,50,83.8,0.1,1.43,1.4,0.72,5.33,34.29,55.37,35.2,47.68,15.03,59.04,25.94,0.23,127.41,675.5,1175,669,0.427,0.419,28,79.4
13515,4.74,24,6,3.4,42.129825,80.2,42.102028,148.58,146.48,5.44,6.2,11.54,12.6,69.4,68,267.2,140.8,270,135,120.1,113,11.3,8.5,11,8,513.1,32.9,0.023,12.96,9.83,12.66,12.15,13.15,12.96,13.23,12.3,12.77,12.34,13.63,10.72,4.87,11.18,15.67,18.26,17.33,13.37,7.7,12,12,0.32,1.15,43.9,2.2,9.91,31.4,390.2,24,13.4,25.4,103.9,156.7,120.7,72.8,46.9,50.8,62.8,77.9,45.6,800.7,45.7,5.5,97.81,83.78,5.25,8,5.3,58,100,85.9,50,69.2,0.1,1.21,1.4,0.67,5.51,31.14,54.3,35.08,46.55,15.25,60.11,24.64,0.23,131.69,682.6,1208,667,0.427,0.41,32.8,189
2595,0.4,20,12,2.58,42.026936,43.2,42.019536,135.16,132.05,7.36,7.2,13.54,14.1,68.8,68,276,128.9,275,129,116.5,116,11,8,11,8,582.1,28.2,0.034,10.88,8.68,11.21,11.39,12.39,12.47,12.1,10.64,12.14,11.17,11.78,10.63,6.92,13.07,17.81,20.41,19.36,15.31,9.48,12,12,0.19,1.16,47.6,2.1,10.2,46.3,389,28.1,20.7,54.7,127,121,73.9,43.7,25.7,29.2,43.6,63.9,49,680.6,206.4,14.4,90.62,50.16,22.42,7,8.1,83,100,100,50,81,0.1,2.18,1.38,0.96,5.24,34.52,58.76,37.05,51.21,14.46,58.31,27.23,0.24,140.21,378.7,774,350,0.303,0.252,16.8,206.4
91098,30.43,86,13,2.38,42.09194,493.2,42.014259,137.25,132.41,5.89,7.2,11.93,14.3,68.7,68,269.1,136.4,275,129,116.1,116,10.9,8.1,11,8,528.6,32.4,0.027,11.27,8.77,11.74,11.35,12.73,12.26,11.91,10.85,12.18,11.42,12.4,10.43,5.35,11.61,16.18,18.72,17.82,13.84,8.15,78,60,0.32,3.3,46.3,2.1,10.24,32.7,391.3,24.4,14.3,30,106.9,149.4,112.1,69.1,44.5,46.7,59.3,74.5,45.7,776.7,152.8,7.3,95.36,80.36,9.61,7,5.3,58,84.7,46.7,50,77,0.1,1.59,1.4,0.74,5.35,33.89,55.83,35.38,48.13,14.99,58.81,26.2,0.23,132.33,600.5,1263,595,0.381,0.376,27.7,158.5
10035,5.75,81,8,2.58,41.915983,99.6,41.866482,137.98,124.42,5.87,6.8,11.64,14,69.5,69,269.5,135.7,272,132,123.8,121,12,9,12,9,529.1,30.2,0.043,10.97,8.46,11.13,11.39,13.17,12.38,12.13,11.5,12.6,11.42,12.26,10.64,5.28,11.54,16.02,18.54,17.68,13.71,8.06,72,60,0.34,1.2,49.7,2.1,10.15,32.5,572.5,25.3,15.3,34.5,114.9,141.8,98.7,62.2,42.3,44.5,57.1,74.3,47.4,758.3,196.1,5.5,98.13,80.25,3.62,8,5.3,58,74.9,68.1,50,58.2,0.1,1.19,1.41,0.68,5.43,32.32,54.9,35.39,47.14,15.3,59.84,24.86,0.23,159.35,628.8,1172,628,0.402,0.402,24.1,178.3
5534,2.73,68,18,1.71,41.847134,54.4,41.845092,127.88,122.25,7.3,7.6,12.87,13.7,67.9,68,273,131.4,274,129,124,119,12.2,9.2,12,9,578.3,27,0.062,9.63,7.64,9.98,10.41,12.28,11.71,11.73,11.22,11.93,10.41,11.15,9.72,6.52,12.63,17.26,19.93,18.98,14.97,9.16,58,48,0.47,1.24,49,3,10.88,99.7,579.6,24.4,17,46.5,114.5,105.9,66.4,41.4,27.4,28.4,38.6,56.6,42.1,609.1,75.4,27.1,86.86,46.57,29.25,8,5.3,62,76.5,100,50,57.4,0.1,1.02,1.44,0.96,4.07,46.98,62.06,38.69,54.51,15.32,56.09,28.59,0.25,135.96,466.7,929,448,0.298,0.27,13,128.7
5106,7,21,18,1.38,41.679523,139.9,41.71426,124.76,122.71,8.34,8.5,14.08,15.8,68.1,68,280,125.2,282,122,113.2,108,11,8.1,10,7,617.1,25.8,0.05,9.45,7.66,10.34,10.59,12.27,11.7,10.76,10.48,11.38,9.57,10.72,9.84,7.84,13.92,18.54,21.23,20.2,16.17,10.22,20,20,0.5,1.8,48.5,2.9,11.05,103.4,574.1,26.7,21.4,58.5,115,92.9,57.5,33.9,22.8,23.2,30.1,51,43.5,576.5,127,20.5,88.57,55.61,40.35,8,5.3,62,100,79.3,49,69.4,0.1,2.2,1.43,1,4.33,42.31,62.68,39.18,55.66,14.91,55.86,29.23,0.25,132.75,335.8,696,358,0.4,0.437,12.1,53.5
1176,0.2,43,16,2.37,41.32336,25.1,41.339261,118.11,116.24,9.82,9.9,15.52,15.8,67,67,286.5,117.3,287,117,107.4,107,10.4,7.5,10,7,672.7,22,0.065,8.93,7.2,9.5,10.49,11.38,11.04,10.71,10.46,10.91,9.12,9.66,8.86,8.93,14.88,19.59,22.22,21.18,17.18,11.06,42,30,0.82,1.24,42.3,3,11.81,474.3,572.3,31.3,28.7,67.9,96,66.6,42.1,25.9,19.4,19.7,25,44.5,43.5,510.8,409.6,71.7,38.2,15.75,150.66,11,8.4,67,99.8,99.9,50,72.6,0.12,0.9,1.47,1.65,2.58,49.77,69.14,49.96,62.75,12.26,66.9,20.84,0.25,147.65,175.2,285,169,0.334,0.297,6.4,311.3
29976,8.95,22,11,2.02,42.150051,212.8,42.146755,121.19,104.09,5.74,6.4,11.29,13,67.6,67,264.9,142.3,265,142,122.9,123,11.7,8.6,12,8,522.8,33,0.061,8.91,6.8,9.98,9.92,11.66,11.28,11.25,9.83,11.16,10.25,10.74,9.15,4.44,10.64,15.27,17.72,16.9,13.03,7.31,12,12,0.29,1.19,44.8,2.6,10.48,42.8,494.6,18.7,9.9,18,88.1,138.1,99.4,59.7,38.6,40.8,50.4,62.9,36,660.6,136,15.4,91.39,79.32,7.26,8,5.3,58,100,99.9,50,79.2,0.1,1.27,1.37,1.11,4.69,39.02,58.18,37.01,50.77,13.67,59.48,26.85,0.23,112.69,702.8,1178,677,0.384,0.35,21.4,212.3
30361,10.34,81,11,2.03,42.202688,424.1,42.14481,114.75,102.86,5.91,6.6,11.67,13.2,67.2,67,264.2,143.2,265,142,124.8,122,11.9,8.9,12,8,529.6,31.2,0.077,8.11,6.37,9.1,9.57,11.23,10.9,11.01,9.66,10.72,9.73,10.07,8.35,4.69,10.84,15.55,17.99,17.17,13.33,7.56,72,60,0.28,1.16,43.1,2.4,10.84,45.6,495.2,17.6,9.6,19.4,88.8,123.2,83.9,50.7,32.8,35.1,44.4,56.9,33.8,596.4,149.9,22.3,86.65,75.83,11.38,8,5.3,58,100,100,50,74.4,0.1,1.28,1.38,1.19,4.71,40.2,58,36.97,50.58,14.04,59.3,26.65,0.24,105.35,666.3,1178,641,0.346,0.313,20.5,172.6
6321,1.65,43,11,2.6,42.207105,90.4,42.133143,108.02,103.02,6.38,6.8,11.92,13,66.6,66,261.4,146.4,264,143,125.3,121,12,8.9,12,8,543.6,28.5,0.117,7.03,5.61,7.57,9.32,10.69,10.77,11.47,9.65,10.29,9.05,9.21,7.17,4.82,10.89,15.67,18.11,17.33,13.49,7.65,33,25,0.42,1.13,43.2,2.1,10.28,42.5,496,16,9,22,89.8,98.3,60.1,37,24.6,26.9,35.6,48.1,30.2,497.6,165.8,29.6,82.92,75.6,8.23,8,5.3,58,100,100,50,76.3,0.1,1.18,1.4,1.71,4.68,41.3,58.03,37.38,50.52,14.55,59.65,25.8,0.24,95.38,647.3,1017,629,0.404,0.374,20.4,160.1
5746,2.05,81,9,2.59,42.07979,64.5,42.106199,117.46,110,5.84,6.7,11.16,12.8,67.9,67,263.7,144.7,264,144,123.8,124,12,8.4,12,9,527.5,33.8,0.087,8.41,6.32,8.7,9.71,11.55,11.42,11.52,9.89,11.24,9.99,10.31,8.37,4.55,10.7,15.37,17.84,17.05,13.18,7.44,72,60,0.25,1.24,46.1,2.9,10.03,53.3,496,20.8,10.7,16.7,88.4,153,126.3,77.6,51.7,53.3,62.3,74.2,40.4,775.5,186.1,12.5,93.19,80.46,1.23,8,5.3,58,100,100,50,84.2,0.1,1.23,1.38,0.9,5.39,32.28,57.76,36.82,49.45,14.43,60.16,25.41,0.23,104.41,715.4,1134,707,0.434,0.422,22.6,280.1
5526,1.42,81,15,2.58,42.186263,85.6,42.120087,112.86,112.62,6.51,6.9,12.26,13.2,66.7,66,259.7,148.1,263,145,130.3,130,12.2,9.6,12,10,549.6,28.4,0.095,7.47,6.09,8.27,9.57,11.03,11.16,10.97,9.76,10.54,9.41,9.84,8.01,5.08,11.13,15.93,18.38,17.6,13.67,7.82,72,60,0.4,1.21,44,2,10.57,43.2,496,17.4,10.2,24,94.2,102.8,63.3,37.8,25.9,29.3,37.9,51.8,32.7,527.2,165.8,34.2,77.84,70.8,7.28,8,5.3,58,100,100,50,70,0.1,1.23,1.39,2.19,4.37,42.45,58.54,37.56,51.22,14.18,59.43,26.39,0.24,99.85,609.9,1017,605,0.348,0.34,18.3,191.3
15502,9.1,39,16,1.96,42.014508,213,41.963144,128.48,118.43,5.86,6.8,11.08,13,68.4,68,264,144.3,266,140,129.2,132,12.2,9.4,12,10,526.2,32.6,0.068,9.72,7.23,9.78,10.39,12.38,12.27,11.93,10.67,12.15,10.91,11.37,9.7,4.47,10.64,15.29,17.81,16.97,13.04,7.35,33,21,0.4,1.37,45.9,2.6,10.56,65.4,496.6,20.6,11.3,20.7,95.5,145.5,106.1,64.3,43.9,45.7,55.4,68.5,39.7,717.2,167.8,7.8,95.2,89.63,0.82,8,5.3,58,100,100,50,88.5,0.1,1.18,1.4,0.81,5.37,34.04,56.7,36.46,48.67,14.86,60.11,25.02,0.23,121.03,718.1,1178,708,0.389,0.376,19,207.1
54829,35.78,104,19,2.28,41.954961,627,41.946477,129.2,115.15,6.34,7,11.53,13.6,68.2,67,266.3,140.8,266,142,130.5,135,12.3,9.6,13,10,543.4,31,0.063,9.83,7.39,9.91,10.63,12.43,12.15,11.85,10.93,12.04,10.83,11.32,9.88,4.95,11.07,15.76,18.3,17.45,13.5,7.76,95,60,0.53,1.48,46.5,2.6,10.9,79,498.5,21.2,12.1,26,104.2,138.3,92.9,56.5,38.5,40.4,50.3,65.1,40.2,685.7,120.7,12.5,88.76,77.57,8.55,8,5.3,58,76.7,100,50,88.7,0.1,1.44,1.38,1.12,4.38,43.9,59.28,37.16,52.14,13.67,57.95,28.38,0.24,126.73,647.9,1178,635,0.36,0.344,15,187.5
5490,0.53,21,12,3.35,42.363079,37.3,42.361193,109.01,104.34,5.93,6.3,11.67,13,67.1,66,262.6,145.6,261,147,137.3,133,13.1,10,13,10,531.4,29.5,0.086,7.49,6.02,8.43,9.39,11.15,10.38,10.44,9.48,10.14,8.96,9.69,7.65,4.62,10.72,15.51,17.9,17.11,13.38,7.59,12,12,0.23,1.14,38.3,2.6,10.46,45.7,495.5,17.3,9.5,20.6,91.4,111.8,68.7,41.6,28.6,31.2,41.2,53.7,33.2,548.9,165.8,49.1,64.37,59.75,5.35,8,5.3,58,100,100,50,64.2,0.11,1.2,1.36,1.22,4.07,48.13,60.94,38.58,54.3,12.66,58.74,28.6,0.24,99.85,684.1,981,664,0.37,0.327,17.8,239.7
11315,6.47,60,14,1.79,42.358927,347.7,42.280362,107.69,111.18,6.49,6.8,12.36,13.2,66,66,260.7,146.9,258,149,135,135,13,9.9,13,9,549.6,28.6,0.094,6.94,5.94,8.11,9.22,10.69,10.63,10.3,9.45,10.13,8.91,9.57,7.61,5.09,11.14,16.03,18.42,17.66,13.84,7.95,45,33,0.36,1.28,41.1,2.4,10.94,63.4,497,17.4,10.1,24.5,95.1,101.2,61.4,36.8,24.4,26.9,36,50.5,32.5,516.7,164,51,62.49,57.29,15.08,8,5.3,58,100,100,50,52.4,0.1,1.82,1.37,1.63,4.02,47.44,60,36.91,53.14,13.21,56.64,30.14,0.24,96.85,609.6,981,610,0.351,0.351,14.9,193.5
11934,6.04,39,14,1.74,42.355765,368.7,42.271111,107.96,111.22,6.5,6.9,12.37,13.1,66,66,260.6,147,259,148,135.1,135,13,9.9,13,9,550,28.5,0.093,6.97,5.96,8.13,9.24,10.71,10.66,10.3,9.47,10.16,8.93,9.59,7.65,5.09,11.15,16.04,18.43,17.67,13.85,7.95,33,21,0.37,1.26,41.2,2.4,10.9,63,497,17.4,10.2,24.8,95.4,101.2,61.5,36.8,24.4,26.8,36,50.5,32.6,517.8,164.1,51.7,61.91,56.74,20.07,8,5.3,58,100,100,50,52,0.1,1.8,1.38,1.58,4.07,47.12,59.88,36.9,52.98,13.29,56.75,29.96,0.24,96.99,608,981,609,0.349,0.351,14.8,185.3
5128,1.85,59,13,2.21,42.271618,128.9,42.252308,111.66,112.1,6.47,6.8,12.16,12.7,66,66,258.9,148.8,258,149,131,135,12.3,9.4,13,9,547.9,29,0.094,7.34,6.13,8.29,9.65,10.97,11.05,10.9,9.72,10.52,9.3,9.84,7.96,4.87,10.87,15.71,18.15,17.37,13.52,7.64,45,33,0.34,1.19,42.8,2,10.73,47.5,496,17.2,9.8,22.5,93.5,106.3,65.7,40.6,26.9,30.2,39.6,52,32.5,536.8,165.8,38.9,74.85,69.17,6.04,8,5.3,58,100,100,50,61.1,0.1,1.14,1.4,1.17,4.65,42.72,58.07,37.43,50.77,14.23,59.66,26.1,0.24,98.83,641.5,1017,640,0.365,0.362,16.8,204.6
29671,21.48,67,16,1.54,42.288882,859.7,42.166196,112.01,118.87,6.64,7.2,12.43,13.7,66.2,66,260.1,147.8,261,149,138.3,157,13.3,10,15,11,554.8,28.7,0.086,7.36,6.28,8.44,9.57,10.93,10.91,10.61,9.78,10.4,9.34,9.95,8.14,5.24,11.31,16.17,18.55,17.79,13.95,8,59,59,0.49,1.3,42.1,2.2,10.88,56.3,496.9,18.4,10.8,25.9,97.8,105.7,64.8,38.7,26,28.6,38.3,53.1,34.3,542.5,165.1,46.7,66.1,59.83,17.6,8,5.3,58,100,99.9,50,53.3,0.1,1.62,1.39,1.3,4.35,45.31,59.08,36.89,51.98,13.72,57.61,28.67,0.24,100.15,591.6,1017,596,0.352,0.359,15.7,190.2
9960,1.55,40,17,1.68,42.105901,174.9,42.058695,112.63,110.73,7.41,7.8,12.79,14.1,67.9,67,271.3,141,274,139,143.3,141,13.9,10.3,14,10,583.7,28.3,0.075,7.74,6.6,8.62,9.76,10.58,10.82,10.52,9.81,10.3,9.38,9.96,8.32,6.51,12.61,17.45,19.87,19.05,14.94,8.97,33,24,0.76,1.71,40.6,2,11.42,58.6,499.5,19.5,12.6,32.5,104.2,101.8,60.1,36.7,25.8,24.7,31.6,51,35.4,536,87.5,30.9,79.47,54.06,7.56,8,5.3,58,63,99.9,50,100,0.11,1.35,1.44,1.16,3.94,47.74,63.64,40.57,56.37,16.04,55.97,27.99,0.25,100.35,491,658,501,0.532,0.56,13.6,179
14156,6.3,55,14,2.03,41.792941,286.6,41.760922,119.83,110.85,7.21,7.2,13.1,14.4,66.8,65,269.4,138.2,268,143,129.6,127,12.2,9.6,12,9,574.6,27.2,0.059,9.4,7.07,9,10.1,11.32,11.33,11.02,10.63,10.44,9.72,10.65,9.15,6.31,12.37,17.11,19.66,18.81,14.78,8.82,42,33,0.52,1.81,45.8,2.1,11.53,141,497.8,21.3,14.2,39,108.9,101.4,62.1,37,25.2,25.5,32.7,50.7,37.6,555.7,75.4,50.6,64.58,46.23,21.74,8,5.3,62,100,99.9,50,94.4,0.1,1.33,1.44,1.02,3.73,50.23,63.21,38.36,55.84,14.9,54.16,30.93,0.25,120.38,438.1,724,422,0.427,0.395,11,180.6
19481,19.43,61,20,1.44,41.668328,523.7,41.461481,121.65,119.82,7.63,8.6,13.34,14.4,67.3,67,274.4,132.7,281,128,121.5,114,11.6,8.8,11,8,589.2,26.6,0.059,9.27,7.24,9.4,10.45,11.88,11.47,10.91,10.37,10.96,9.6,10.44,9.33,6.77,12.82,17.49,20.13,19.19,15.17,9.26,55,45,0.62,1.3,46.7,2.2,11.83,259.3,635.9,22.9,16.2,44.9,110.5,97,59.6,35.5,23.9,24.8,31.5,50.9,39.5,557.2,85.4,28.7,79.71,44.59,35.58,8,5.3,62,100,84.7,49,83.5,0.1,1.41,1.49,1.19,3.28,52.9,67.62,39.65,59.78,16.54,49.9,33.56,0.26,130.18,415.2,678,410,0.466,0.455,6.7,191.8
8210,6.78,26,8,1.89,41.9632,59.5,41.92537,153.66,139.84,5.16,5.6,10.35,12.1,69.5,69,266.7,139.2,267,140,130,133,12.2,9.5,13,10,501.3,33.2,0.028,12.67,9.5,12.65,12.65,14.5,13.6,12.81,12.52,13.95,12.79,13.81,12.18,3.94,10.27,14.66,17.12,16.32,12.34,6.78,18,18,0.34,1.15,49.1,2.2,10.56,29.3,632.4,24.3,13,23.7,103.7,161.4,130.5,83.2,56.6,57.1,69,81.1,47,850.5,206.4,5.3,99.38,68.8,1.43,8,5.3,58,100,99.1,50,77.2,0.1,1.2,1.4,0.68,5.49,32,54.6,35.3,46.83,15.26,60.1,24.64,0.23,177.22,797.2,1263,775,0.37,0.34,20.3,203.8
333,0.12,22,9,3.42,42.007494,2.2,42.011203,174.82,161.82,4.73,4.7,8.85,9.5,70,70,265.3,140.1,265,139,129,126,12,9.5,12,9,483.5,36.3,0.005,14.26,11.2,14.79,14.05,16.17,14.9,13.74,13,14.48,14.27,16.16,14.05,2.7,9.09,13.37,15.87,15.14,11.16,5.67,18,18,0.86,1.04,48.9,2,8.55,33.7,561.6,27.6,13.6,19,98.1,185.9,184.8,124,85.2,82.3,94.3,99.4,53.2,1067.4,206.4,12,99.92,55.37,3,8,5.3,58,100,94.8,50,100,0.1,1.28,1.38,0.61,5.65,26.47,52.69,33.93,45.03,15.24,60.11,24.65,0.21,210.81,1029.7,1228,1039,0.526,0.548,25.5,289.5
1436,0.4,34,7,3.34,42.015096,9.7,41.99537,160.13,151.89,4.7,4.6,9.68,10.9,69.9,70,265.1,141.1,265,142,129.5,130,11.9,9.6,12,10,486.6,36.6,0.023,13.24,9.95,13.52,13.13,15.12,14.09,13.09,12.98,14.54,13.36,14.42,13.03,3.35,9.72,14.03,16.5,15.76,11.78,6.25,26,26,0.47,1.06,47.9,2,9.54,21.8,634.4,24.4,12.9,17.5,92.3,176.6,166.4,107.2,72.7,70.3,80.8,88.9,47.6,957.8,206.4,6,99.76,95.98,0.92,8,5.3,58,100,99.7,50,72.4,0.1,1.21,1.4,0.67,5.51,31.2,54.32,35.1,46.57,15.25,60.11,24.64,0.23,166.42,870.1,1108,873,0.507,0.513,23.3,180.2
15762,8.06,26,10,1.94,41.988189,87.9,41.920369,154.89,137.09,4.91,6,10.38,12,69.8,69,265.2,141.5,268,139,131.4,134,12.4,9.7,14,10,494.3,35.6,0.031,12.75,9.44,12.77,12.75,14.6,13.69,12.81,12.84,14.3,12.83,13.7,12.43,3.96,10.25,14.67,17.13,16.32,12.38,6.79,18,18,0.48,1.21,48.2,2.4,10.11,32.2,631.1,23.7,12.2,18.6,94,172.2,151.9,95.7,65.6,64.4,74.9,83.7,46,902.9,205.1,5.1,97.89,88.6,0.9,8,5.3,58,100,72.4,50,90.6,0.1,1.18,1.41,0.69,5.46,32.91,54.92,35.52,47.14,15.26,60.1,24.64,0.23,170.62,787.3,1228,777,0.4,0.386,20.3,176
23769,13.21,79,13,2.35,41.968898,172.5,41.890092,152.02,133.66,5.16,6.9,10.56,12.7,69.6,68,266.2,140.2,270,134,131.1,128,12.5,9.7,13,10,502.5,34.1,0.032,12.5,9.31,12.46,12.51,14.34,13.48,12.71,12.56,13.96,12.62,13.52,12.06,4.15,10.44,14.87,17.35,16.53,12.57,6.97,68,58,0.42,1.23,48.6,2.4,10.48,33,632,23.9,12.7,21.8,99.8,165.7,137.9,87.2,59.7,59.6,70.6,81.3,46.2,866.4,192.9,4.6,98.32,78.15,1.7,8,5.3,58,100,85.5,50,82.2,0.1,1.18,1.41,0.71,5.41,33.68,55.16,35.68,47.41,15.2,60.08,24.72,0.23,169.99,769.1,1263,752,0.379,0.358,19.8,185.2
3296,3.7,62,9,1.28,42.817814,265,42.665631,110.95,105.9,6.83,7.1,12.39,13.2,65.4,65,265.2,142.3,262,144,146.4,142,15,10,15,10,568.7,27.7,0.088,7.54,6.27,8.48,9.31,10.12,11.03,10.57,10.08,10.92,8.81,9.69,8.27,5.79,12.08,17.01,19.41,18.44,14.49,8.64,59,45,0.71,1.55,46.7,3.2,12.12,163.4,574.2,18.7,11.7,29.5,97.2,92.9,56.6,33.8,21.8,23.7,32.1,50,33.9,501.9,3.1,64.5,33.63,23.07,18.94,7,8.1,83,63.3,63.7,50,98,0.13,1.9,1.41,2.69,3.32,54,69.02,47.34,63.61,18.51,55.68,25.81,0.29,92.72,468,639,464,0.4,0.386,8,145.9
11841,7.78,38,13,1.89,42.4889,432.8,42.44508,104.89,104.91,6.75,7,12.81,13.5,65.6,66,262.7,144.9,262,146,135.6,137,13.3,10,13,10,560.2,27.3,0.095,6.77,5.9,7.9,8.97,10.23,10.55,10.12,9.31,9.86,8.7,9.33,7.44,5.42,11.57,16.5,18.91,18.04,14.22,8.33,37,26,0.56,1.36,40.9,2.8,11.03,82.5,571.5,17.5,11,29.5,94.8,88.6,52.8,31,20.4,22.1,30.1,45.7,31.9,475.4,119.8,40.9,66.67,46.72,11.35,8,5.3,58,100,93.6,50,94.7,0.12,1.97,1.34,1.89,3.89,44.98,65.56,42.01,58.04,13.72,58.42,27.85,0.25,93.41,559,829,570,0.429,0.452,10.5,209.2
34082,78.08,82,20,1.69,42.583868,2553.3,42.32147,108.21,101.47,6.93,7.3,12.81,13.9,65.7,67,263.5,144,267,143,140.7,139,14.1,10.1,13,10,568.8,27.4,0.086,7.32,6.22,8.27,9.26,10.14,10.88,10.24,9.73,10.11,8.67,9.4,7.93,5.77,12,16.95,19.33,18.42,14.52,8.62,60,49,0.74,1.43,43.7,2.7,11.29,106,572.7,18.3,11.8,31,96.5,89.7,54.5,31.9,20.5,22.2,29.9,46.9,33,486.2,44,49.3,56.86,40.22,22.59,7,8.1,60,47.5,80.9,50,97.6,0.12,2.07,1.37,1.88,3.68,47.64,65.99,43.36,59.26,15.85,57.07,27.08,0.26,93.73,499.6,829,500,0.38,0.38,10.7,187.2
5231,4.1,58,10,1.42,42.642206,152.2,42.545354,107.25,104.73,7.12,7.2,13.03,13.6,64.9,66,264,144,264,144,142.9,140,14.8,10,14,10,574.6,25.9,0.083,7.23,6.12,8.07,9.16,9.97,10.64,9.99,9.5,10.42,8.58,9.34,8.18,5.95,12.2,17.16,19.53,18.6,14.74,8.79,56,45,0.66,1.23,46.4,2.8,11.4,127.1,573,20.8,14.6,38.6,99.4,80.4,49.7,28.7,17.6,20.2,27.1,46.9,35.8,480,3,53.6,54.62,39.68,12.09,7,8.1,60,100,74.7,50,96.8,0.13,1.97,1.33,2.16,3.02,47.81,67.4,47.62,61.06,18.51,59.21,22.28,0.26,89.62,478,648,483,0.462,0.478,9.3,182.3
20346,44.04,86,13,1.39,42.690708,1346.2,42.377856,107.55,100.71,7.1,7.4,12.86,13.9,65.1,66,265.5,142.3,267,143,143.6,133,14.7,10,13,10,576.4,27,0.085,7.17,6.05,8.07,9.11,10.02,10.6,10.02,9.5,10.69,8.69,9.37,8.18,6.02,12.28,17.26,19.65,18.73,14.81,8.82,69,54,0.73,1.43,46.7,2.6,11.36,142.7,573.9,18.7,12.4,31.7,96.3,86.5,53,30.9,19.3,21.3,28.3,46,33.3,477.7,13.9,52.8,47.42,33.72,15.43,7,8.1,60,84.5,59.3,50,98.1,0.12,2.39,1.39,1.75,3.37,51.23,66.31,44.41,60.18,16.79,56.67,26.55,0.26,89.38,452,648,459,0.438,0.458,8.9,164.6
72147,181.22,105,16,0.91,42.450733,5790.8,42.035355,108.25,98.97,7.12,7.8,12.89,14.3,66.2,68,266.1,141.7,275,132,140.8,136,13.9,10.1,13,10,575.9,27.3,0.083,7.33,6.26,8.2,9.29,10.11,10.8,10.2,9.55,10.26,8.77,9.44,8.02,6.07,12.27,17.2,19.6,18.72,14.77,8.8,96,60,0.72,1.66,43.4,2.5,11.17,103.7,572.7,18.4,12.1,31.7,96.9,89.1,54.3,31.9,20.6,22,29.4,46.3,33.1,485.8,39.4,47.1,58.87,39.5,21.5,7,8.1,60,70.8,74.4,50,98,0.12,2.03,1.38,1.78,3.45,49.15,66.57,44.23,59.92,16.46,57.1,26.43,0.26,92.66,471.6,829,473,0.377,0.38,10.5,181
13017,22.63,81,17,1.39,42.806308,661.4,42.678682,106.52,98.02,7.02,7.4,12.81,13.6,65.4,65,267.5,139.3,267,140,142.6,138,14.7,10,13,10,576.7,28.2,0.079,7.18,6.18,7.83,8.94,9.9,10.64,9.6,9.01,10.91,8.72,9.36,8.28,6.04,12.33,17.38,19.8,18.84,14.91,8.87,61,50,0.76,1.25,48.2,2.2,11.66,173.2,583.2,15.7,9.6,24.2,90.8,93.2,56.6,31.6,19.8,21,27,43.1,29.3,461.9,14.6,53,39.53,31.74,25.65,7,8.1,60,83.4,73.4,50,99.1,0.13,2.08,1.34,3.56,3.15,51.61,67.97,46.9,61.85,16.75,58.92,24.32,0.27,87.31,437.6,606,440,0.419,0.428,8.6,147.5
7694,0.89,32,12,2.17,42.626545,150.7,42.563961,107.29,103.47,6.9,7.4,12.38,13.3,67,66,265.7,141.6,263,143,143,138,14.4,10,14,10,569.5,28.7,0.085,7.17,6.32,7.82,9,10.02,10.7,9.84,9.13,11.3,8.97,9.27,8.23,5.9,12.17,17.18,19.62,18.71,14.77,8.72,30,26,0.71,1.3,43.7,2.3,11.3,139.4,580,17.6,10.9,25.8,97.3,104.2,64.5,36,22.4,24.3,32.1,48.3,32.7,516.2,50.4,37.3,67.08,43.67,12.89,7,8.1,60,100,53.3,50,99.9,0.13,1.42,1.32,2.19,2.92,48.32,67.82,48.44,61.32,17.85,61.08,21.07,0.25,90.74,500.4,610,511,0.61,0.648,8.6,144
25121,48.06,81,16,1.12,42.640606,1527.5,42.324519,105.65,100.32,7.14,7.5,12.87,14,66.2,68,266.6,140.6,272,137,141.8,145,14.3,10,14,10,579.2,27.8,0.082,7.04,6.14,7.8,8.97,9.84,10.68,9.62,9.04,10.68,8.7,9.24,8.1,6.15,12.4,17.41,19.82,18.92,14.96,8.91,33,21,0.74,1.67,45.5,2.2,11.36,175.2,581.3,16.9,10.9,28,94,91,55.6,31.2,19.4,20.3,26.9,43.3,30.8,468.2,34.9,47.2,53.31,36.95,27.61,7,8.1,60,92.8,60,50,98.8,0.13,1.95,1.36,2.56,3.11,50.71,67.58,46.07,61.18,17.05,58.07,24.88,0.26,87.77,441,610,447,0.502,0.519,8.5,171.5
5556,1.61,34,13,2.04,42.490906,211.7,42.39285,106.92,101.44,7.22,7.5,12.64,13.8,68.7,69,271.3,136.7,274,135,146.9,143,14.7,10.2,14,10,581.8,27.3,0.084,6.97,6.3,7.88,9.15,9.68,10.59,9.82,9.24,10.95,8.93,9.26,8.2,6.23,12.44,17.45,19.93,19.04,15.01,8.98,32,21,0.84,1.14,44.3,2.6,11.53,200.5,580,18.3,12.3,32.4,98.2,87.2,53.3,30,18.4,19.7,27.4,43.4,32.9,473.4,48.9,28.1,79.87,39.98,7.79,7,8.1,60,100,94.6,50,98.1,0.13,1.51,1.32,2.24,2.88,47.49,68.31,48.84,61.87,18.88,60.02,21.1,0.26,90.73,459.3,595,458,0.535,0.531,5.9,176
15347,31.13,79,10,0.75,42.725061,759.8,42.602848,106.75,101.93,6.91,7.8,12.33,13.5,69.2,69,276.2,133.6,284,128,147.2,148,15.6,9.8,17,9,573.5,28.7,0.085,6.87,6.35,7.82,8.79,9.45,10.88,9.69,8.89,11.33,9.03,9.26,8.28,5.94,12.22,17.21,19.71,18.87,14.85,8.8,70,59,0.74,1.38,51.6,2.2,11.31,123.6,577.5,17.4,10.6,24.9,93.7,99.2,61.2,34.5,21.1,23,30.4,47,31.9,494.9,18.6,51.1,49.38,40.64,48.02,7,8.1,60,92.9,62.6,50,99.2,0.13,2.59,1.35,2.09,3.24,49.16,66.86,45.66,60.86,17.43,57.04,25.53,0.26,89.43,460.5,635,461,0.43,0.431,10.3,185.2
9895,7.86,75,9,1.41,42.687845,383,42.541181,107.74,109.37,6.8,7.5,12.41,13.7,68,69,270.4,137.3,277,132,146.8,154,15.1,10,16,10,569.1,28.9,0.086,7.03,6.29,7.8,8.93,9.85,10.58,9.85,8.99,11.62,9.08,9.25,8.39,5.94,12.22,17.21,19.69,18.76,14.82,8.75,66,55,0.75,1.42,46.6,2.1,11.49,115.3,580,16.8,9.5,22.6,93.7,106.7,65.6,36.7,22.5,26.1,34.1,49.3,31.9,515.5,30.7,39.1,62.06,45.34,9.04,7,8.1,60,100,80,50,99.5,0.13,2.06,1.33,2.06,3.08,49.27,66.75,46.8,60.45,17.12,60,22.88,0.25,90.95,483.3,650,490,0.507,0.527,10.8,169.6
16032,12.06,34,9,1.18,42.633879,566.3,42.421739,107.86,99.72,6.97,7.5,12.54,13.4,68.4,70,271.9,136.2,277,132,147.7,136,15.2,10,13,9,574.9,28.4,0.083,7.04,6.34,7.87,9.02,9.75,10.57,9.77,9.1,11.45,9.11,9.31,8.44,6.05,12.3,17.3,19.79,18.87,14.9,8.84,32,20,0.76,1.39,46.1,2.3,11.33,130.7,580,17.5,10.4,25.3,95.3,101.5,62,34.8,21.3,24.3,32.5,48.2,32.4,505.5,27.6,42.2,62.19,43.85,9.9,7,8.1,60,100,55.3,50,99.3,0.13,2.07,1.33,2.06,3.07,49.19,66.93,46.91,60.66,17.34,59.72,22.94,0.26,90.93,465.8,650,469,0.477,0.486,9.8,176.4
63801,128.13,105,14,1.21,42.606369,3833.7,42.218131,105.51,97.32,7.14,7.8,12.72,13.9,68,69,271.9,136.6,278,132,143.6,137,14.7,9.9,13,9,579.9,27.8,0.083,6.87,6.23,7.78,8.94,9.62,10.67,9.6,8.98,10.8,8.78,9.19,8.14,6.15,12.39,17.4,19.86,18.97,14.98,8.93,96,60,0.77,1.61,46.7,2.2,11.32,145.8,579.8,17.2,11,28.1,94.1,91.2,55.7,31.3,19.3,20.6,27.4,43.3,31,470.1,32.7,47.1,56.04,38.46,27.75,7,8.1,60,95.7,50.7,50,99.1,0.13,2.07,1.35,2.29,3.11,49.51,67.32,46.54,61.04,17.49,58.48,24.03,0.26,88.33,443.8,650,445,0.464,0.468,9.1,173.4
104806,17.09,88,20,1.21,41.875611,1987.2,42.028685,92.2,84.73,7.29,8,13.53,14.8,67.1,66,269.9,135.7,271,133,117.2,114,11.8,8.3,12,8,574,25.2,0.132,5.45,5.05,6.81,7.62,8.43,11.64,8.93,8.16,9.12,7.58,7.47,6.1,6.78,12.86,17.53,19.88,19,15.08,9.11,64,45,0.7,1.97,35.3,1.8,10.94,98.6,382.5,12.4,8.7,26.3,71.3,59,39.3,22.1,14.3,13.5,17.8,26.3,20.6,331.7,6,50.9,59.05,44.85,15.03,7,8.1,60,64.8,62,50,69,0.12,1.59,1.36,1.53,3.31,49.36,69.66,47.2,62.18,17.17,58.91,23.92,0.24,76.21,527.4,779,524,0.483,0.476,12.5,197.3
3050,0.64,82,12,1.87,42.375331,79.7,42.395902,94.63,88.2,7.19,7.6,12.93,14,66.4,67,267,142.4,270,139,137.8,135,13.9,10,13,10,572.3,25.8,0.138,5.41,4.84,6.48,7.7,8.52,11.55,9.12,8.67,9.88,8.1,7.81,6.55,6.21,12.32,17.15,19.39,18.44,14.76,8.88,72,60,0.41,1.58,36.6,1.9,10.76,66.6,381.9,12.8,8.2,23.9,70.6,58.9,41.7,24.5,16,17.8,21.7,32.5,22.7,351.1,5.6,31.4,75.4,54.37,4.23,7,8.1,60,100,68.7,50,81.5,0.13,1.95,1.33,2.15,3.05,47.97,67.37,47.57,61.04,18.42,59.23,22.35,0.26,77.42,553.2,685,558,0.589,0.604,9.3,88.7
14909,3.62,76,19,2.02,42.298612,151.7,42.334792,95.41,89.4,7.31,7.5,13.09,14,66.6,67,266.2,142.5,268,140,140,133,14.2,10,13,10,576.3,27,0.134,5.5,4.85,6.64,7.74,8.7,11.63,9.18,8.49,9.91,8.15,7.95,6.7,6.26,12.34,17.09,19.33,18.4,14.73,8.86,67,60,0.35,1.32,35.8,2,10.9,69.5,382.1,14.8,9,23.4,73,66.6,47.2,27.1,17.3,20.7,27.3,41.5,26.8,394.6,7.8,39.1,69.96,51.16,42.76,7,8.1,60,100,58.4,50,84.2,0.13,2.36,1.34,2.05,3.17,48.73,66.65,46.43,60.46,17.82,58.58,23.6,0.26,78.99,563.8,717,575,0.57,0.601,11.5,86.9
3945,0.27,51,15,0.75,42.850754,260.6,42.957842,88.7,87.54,8.08,8.5,13.42,13.9,69.8,72,282.6,125.9,287,119,132,134,12.6,9.5,13,10,613.9,23.8,0.138,4.92,4.54,6.08,7.25,8.02,9.82,8.35,8.07,10.22,7.93,7.58,5.97,6.93,13.08,18.14,20.64,19.89,15.84,9.85,42,42,0.79,1.35,51.2,2,12.14,646.7,413.6,11.5,8.9,26.3,63.1,45.7,29.8,17.2,10.8,10.1,14.8,21.5,18.2,278,65,71.3,32.06,23.59,18.49,7,8.1,83,79.7,44,49,46.3,0.14,1.56,1.41,3.88,3.16,55.75,70.69,48.21,65.31,18.51,55.59,25.9,0.29,72.22,338.3,653,297,0.359,0.275,5.6,8.2
3202,13.03,66,16,1.39,42.90489,245.6,42.983399,103.96,104.07,7.57,8.1,12.93,13.5,70.1,71,279.4,128.8,282,125,147.1,150,15.7,10,16,10,599.1,27.8,0.095,6.55,5.75,7.53,8.56,8.93,10.51,9.55,8.92,11.19,8.92,9.38,7.92,6.53,12.91,17.92,20.43,19.61,15.6,9.49,58,58,0.77,1.98,59.1,1.7,11.16,88,433.6,17.6,10.9,27.1,90.3,83.1,49.9,28.5,17.1,18,25.3,42,31.4,441.4,62.5,59.8,38.18,34.5,50.44,7,8.1,83,98,72.2,50,68.3,0.13,2.33,1.49,1.56,3.52,57.58,68.99,46.4,64.35,18.17,53.18,28.65,0.3,86.75,318.1,584,321,0.424,0.431,9.6,1.6
4737,30.6,47,18,1.29,42.933459,331.7,43.057567,104.17,103.44,7.72,8.4,13.07,13.9,70.4,71,280.2,127.4,284,121,148.3,154,15.9,10,17,10,604.2,27.6,0.093,6.65,5.76,7.59,8.58,8.91,10.35,9.62,8.97,11.18,8.83,9.48,8.02,6.67,13.06,18.08,20.61,19.77,15.75,9.63,38,38,0.71,1.75,59.4,1.8,11.33,180.9,429.1,17.9,11.4,29.2,91.1,81,48.1,27.7,16.7,17.1,24.2,41.1,31.6,437.1,62.6,65.8,33.21,29.86,376.54,7,8.1,83,98.5,74.5,50,64.1,0.13,2.46,1.48,1.57,3.3,52.39,71.52,48.46,67.06,18.8,52.8,28.39,0.31,86.73,288.4,584,285,0.375,0.368,8.3,349
547,2.22,58,18,1.79,43.013962,25.9,43.0359,105.78,104.09,8.05,8.3,13.31,13.7,71.1,71,281.7,124.7,283,122,150.3,152,16.2,10,17,10,615.8,27.6,0.084,7.03,5.88,7.83,8.71,8.9,10.01,9.78,9.19,11.22,8.75,9.93,8.39,6.92,13.33,18.37,20.92,20.04,16.01,9.88,49,49,0.73,1.32,61.9,2,11.1,897.2,414,19.8,13,34.9,95.5,80.2,46.7,27.6,17,16.9,24,42.6,34.1,452.2,62.8,79.9,25.88,23.6,542.84,7,8.1,83,100,99.5,50,61.8,0.14,1.99,1.46,1.65,2.32,42.23,81.52,58.32,77.49,21.76,53.57,24.67,0.34,86.67,236.8,398,245,0.418,0.448,4.2,359
18292,18.16,81,13,1.11,43.507247,482.1,43.301736,137.43,114.87,5.27,7.3,11.38,13.3,65.8,64,262.9,143.7,271,138,162.1,153,17.3,10.1,16,10,533.3,37.7,0.072,11.9,8.49,9.97,10.04,11.13,11.02,10.85,11.81,14.85,11.87,13.26,12.48,4.8,11.43,16.26,18.76,17.88,13.74,7.71,71,45,0.98,1.52,52.8,2.6,12.32,338.8,669.2,21.2,10.8,14.2,86,164.7,136.1,79.5,51.9,59.3,70,79.5,41.8,814.9,6,16.4,68.24,55.31,4.74,8,5.3,58,100,46.2,45,49.4,0.1,2.15,1.45,2.43,2.57,58.68,69.1,38.05,63.39,9.89,50.12,39.99,0.21,124.57,454.3,643,481,0.618,0.672,3.4,180.1
1047,0.56,66,14,1.08,43.745417,137.6,43.712568,126.55,129.15,4.24,4.2,11.76,11.3,64.2,64,256.6,155.2,253,159,168.3,166,18,11.8,18,11,502,38.7,0.062,11.53,7.7,9.31,9.08,9.91,10.18,11.83,11.64,12.13,10.23,12.04,10.96,3.94,10.77,15.58,17.89,17.06,12.85,6.96,61,24,0.71,1.23,55,3.7,12.61,51.5,867.8,17.6,8.8,8.2,65.8,152.2,130.1,77.5,52.7,54.2,62.9,69.7,35,734.5,1.8,26.5,57.04,45.46,8.61,8,5.3,58,100,82.2,51,83.9,0.14,3.95,1.32,3.07,4.12,45.38,80.07,36.93,72.56,5.24,45.48,49.28,0.2,102.23,577,885,562,0.158,0.117,8.8,314.2
